…
    ## Warning: 40 parsing failures.
    ##  row                               col expected actual                                                                                                  file
    ## 2316 MMRAcquisitionAuctionAveragePrice a double   NULL 'C:/Users/wiroo/Documents/SCHOOL/Pace/Data Mining Algorithms and Applications/DontGetKicked/test.csv'
    ## 2316 MMRAcquisitionAuctionCleanPrice   a double   NULL 'C:/Users/wiroo/Documents/SCHOOL/Pace/Data Mining Algorithms and Applications/DontGetKicked/test.csv'
    ## 2316 MMRAcquisitionRetailAveragePrice  a double   NULL 'C:/Users/wiroo/Documents/SCHOOL/Pace/Data Mining Algorithms and Applications/DontGetKicked/test.csv'
    ## 2316 MMRAcquisitonRetailCleanPrice     a double   NULL 'C:/Users/wiroo/Documents/SCHOOL/Pace/Data Mining Algorithms and Applications/DontGetKicked/test.csv'
    ## 2418 MMRAcquisitionAuctionAveragePrice a double   NULL 'C:/Users/wiroo/Documents/SCHOOL/Pace/Data Mining Algorithms and Applications/DontGetKicked/test.csv'
    ## .... ................................. ........ ...... .....................................................................................................
    ## See problems(...) for more details.

``` r
train_kicked
```

    ## # A tibble: 72,983 x 34
    ##    RefId IsBadBuy PurchDate Auction VehYear VehicleAge Make  Model Trim 
    ##    <dbl>    <dbl> <chr>     <chr>     <dbl>      <dbl> <chr> <chr> <chr>
    ##  1     1        0 12/7/2009 ADESA      2006          3 MAZDA MAZD~ i    
    ##  2     2        0 12/7/2009 ADESA      2004          5 DODGE 1500~ ST   
    ##  3     3        0 12/7/2009 ADESA      2005          4 DODGE STRA~ SXT  
    ##  4     4        0 12/7/2009 ADESA      2004          5 DODGE NEON  SXT  
    ##  5     5        0 12/7/2009 ADESA      2005          4 FORD  FOCUS ZX3  
    ##  6     6        0 12/7/2009 ADESA      2004          5 MITS~ GALA~ ES   
    ##  7     7        0 12/7/2009 ADESA      2004          5 KIA   SPEC~ EX   
    ##  8     8        0 12/7/2009 ADESA      2005          4 FORD  TAUR~ SE   
    ##  9     9        0 12/7/2009 ADESA      2007          2 KIA   SPEC~ EX   
    ## 10    10        0 12/7/2009 ADESA      2007          2 FORD  FIVE~ SEL  
    ## # ... with 72,973 more rows, and 25 more variables: SubModel <chr>,
    ## #   Color <chr>, Transmission <chr>, WheelTypeID <chr>, WheelType <chr>,
    ## #   VehOdo <dbl>, Nationality <chr>, Size <chr>, TopThreeAmericanName <chr>,
    ## #   MMRAcquisitionAuctionAveragePrice <chr>,
    ## #   MMRAcquisitionAuctionCleanPrice <chr>,
    ## #   MMRAcquisitionRetailAveragePrice <chr>,
    ## #   MMRAcquisitonRetailCleanPrice <chr>, MMRCurrentAuctionAveragePrice <chr>,
    ## #   MMRCurrentAuctionCleanPrice <chr>, MMRCurrentRetailAveragePrice <chr>,
    ## #   MMRCurrentRetailCleanPrice <chr>, PRIMEUNIT <chr>, AUCGUART <chr>,
    ## #   BYRNO <dbl>, VNZIP1 <dbl>, VNST <chr>, VehBCost <dbl>, IsOnlineSale <dbl>,
    ## #   WarrantyCost <dbl>

``` r
test_kicked
```

    ## # A tibble: 48,707 x 33
    ##    RefId PurchDate Auction VehYear VehicleAge Make  Model Trim  SubModel Color
    ##    <dbl> <chr>     <chr>     <dbl>      <dbl> <chr> <chr> <chr> <chr>    <chr>
    ##  1 73015 12/2/2009 ADESA      2005          4 PONT~ GRAN~ Bas   4D SEDAN SILV~
    ##  2 73016 12/2/2009 ADESA      2005          4 CHEV~ MALI~ LS    4D SEDA~ SILV~
    ##  3 73017 12/2/2009 ADESA      2006          3 DODGE DURA~ Adv   4D SUV ~ SILV~
    ##  4 73018 12/2/2009 ADESA      2002          7 SATU~ L SE~ L20   4D SEDA~ GOLD 
    ##  5 73019 12/2/2009 ADESA      2007          2 HYUN~ ACCE~ GS    2D COUP~ BLUE 
    ##  6 73020 12/2/2009 ADESA      2006          3 DODGE STRA~ SXT   4D SEDAN GREEN
    ##  7 73021 12/2/2009 ADESA      2006          3 FORD  EXPL~ XLS   4D SUV ~ BROWN
    ##  8 73022 12/2/2009 ADESA      2003          6 CHRY~ PT C~ Tou   4D SEDA~ BLUE 
    ##  9 73023 12/2/2009 ADESA      2005          4 CHEV~ MALI~ Bas   4D SEDAN SILV~
    ## 10 73024 12/2/2009 ADESA      2006          3 CHRY~ TOWN~ Tou   MINIVAN~ WHITE
    ## # ... with 48,697 more rows, and 23 more variables: Transmission <chr>,
    ## #   WheelTypeID <chr>, WheelType <chr>, VehOdo <dbl>, Nationality <chr>,
    ## #   Size <chr>, TopThreeAmericanName <chr>,
    ## #   MMRAcquisitionAuctionAveragePrice <dbl>,
    ## #   MMRAcquisitionAuctionCleanPrice <dbl>,
    ## #   MMRAcquisitionRetailAveragePrice <dbl>,
    ## #   MMRAcquisitonRetailCleanPrice <dbl>, MMRCurrentAuctionAveragePrice <chr>,
    ## #   MMRCurrentAuctionCleanPrice <chr>, MMRCurrentRetailAveragePrice <chr>,
    ## #   MMRCurrentRetailCleanPrice <chr>, PRIMEUNIT <chr>, AUCGUART <chr>,
…
``` r
#Fixing the data.
train_kicked$IsBadBuy<- as.factor(train_kicked$IsBadBuy) #Changing to factor.
train_kicked<-na.omit(train_kicked) #Getting rid of NA values.

train_kicked
```

    ## # A tibble: 70,622 x 34
    ##    RefId IsBadBuy PurchDate Auction VehYear VehicleAge Make  Model Trim 
    ##    <dbl> <fct>    <chr>     <chr>     <dbl>      <dbl> <chr> <chr> <chr>
    ##  1     1 0        12/7/2009 ADESA      2006          3 MAZDA MAZD~ i    
    ##  2     2 0        12/7/2009 ADESA      2004          5 DODGE 1500~ ST   
    ##  3     3 0        12/7/2009 ADESA      2005          4 DODGE STRA~ SXT  
    ##  4     4 0        12/7/2009 ADESA      2004          5 DODGE NEON  SXT  
    ##  5     5 0        12/7/2009 ADESA      2005          4 FORD  FOCUS ZX3  
    ##  6     6 0        12/7/2009 ADESA      2004          5 MITS~ GALA~ ES   
    ##  7     7 0        12/7/2009 ADESA      2004          5 KIA   SPEC~ EX   
    ##  8     8 0        12/7/2009 ADESA      2005          4 FORD  TAUR~ SE   
    ##  9     9 0        12/7/2009 ADESA      2007          2 KIA   SPEC~ EX   
    ## 10    10 0        12/7/2009 ADESA      2007          2 FORD  FIVE~ SEL  
    ## # ... with 70,612 more rows, and 25 more variables: SubModel <chr>,
    ## #   Color <chr>, Transmission <chr>, WheelTypeID <chr>, WheelType <chr>,
    ## #   VehOdo <dbl>, Nationality <chr>, Size <chr>, TopThreeAmericanName <chr>,
    ## #   MMRAcquisitionAuctionAveragePrice <chr>,
    ## #   MMRAcquisitionAuctionCleanPrice <chr>,
    ## #   MMRAcquisitionRetailAveragePrice <chr>,
    ## #   MMRAcquisitonRetailCleanPrice <chr>, MMRCurrentAuctionAveragePrice <chr>,
    ## #   MMRCurrentAuctionCleanPrice <chr>, MMRCurrentRetailAveragePrice <chr>,
    ## #   MMRCurrentRetailCleanPrice <chr>, PRIMEUNIT <chr>, AUCGUART <chr>,
…
